<svg version="1.1" viewBox="0 0 100 100" xmlns="http://www.w3.org/2000/svg">
    <g stroke="#d98C8C">
        <path d="m0 10h150"/>
        <path d="m0 90h150"/>
    </g>
    <g stroke="#85a4e0">
        <path d="m0 30h150"/>
        <path d="m0 40h150"/>
        <path d="m0 70h150"/>
    </g>
    <g stroke="#bbbbbb" stroke-dasharray="1,2">
        <path d="m0 20h150"/>
        <path d="m0 50h150"/>
        <path d="m0 60h150"/>
        <path d="m0 80h150"/>
    </g>
</svg>